ply
format ascii 1.0
comment created by platoply
element vertex 8
property float x
property float y
property float z
element face 12
property list uchar int vertex_indices
end_header
0 1 0
0 0 0
1 1 0
1 0 0
1 1 1
1 0 1
0 1 1
0 0 1
3 1 0 2
3 2 3 1
3 2 4 5
3 5 3 2
3 4 6 7
3 7 5 4
3 0 1 7
3 7 6 0
3 0 6 4
3 4 2 0
3 1 3 5
3 5 7 1

